ex04/Programming_Task_0/cpu_instrutions1.vcd
$date
    Jun  2, 2025  10:44:08
$end
$comment
	SimVision SST: d37fa0eb34ee6115b71f12b7fe0b461f
$end
$version
    TOOL:	xmsim(64)	22.09-s007
$end
$timescale
    1 fs
$end

$scope module tb_cpu $end
$var reg       1 !    halt_i $end
$var reg       1 "    clk_i $end
$var reg       1 #    rst_n_i $end
$var reg      32 $    instr_data_i [31:0] $end
$var reg      32 %    instr_mem_addr_o [31:0] $end
$var reg       1 &    instr_mem_addr_valid_o $end
$var reg      32 '    mem_data_i [31:0] $end
$var reg       1 (    mem_data_valid_i $end
$var reg       1 )    mem_write_o $end
$var reg      32 *    mem_data_o [31:0] $end
$var reg      32 +    mem_addr_o [31:0] $end
$var reg       1 ,    error_o $end

$scope module i_dut $end
$var wire      1 -    halt_i  $end
$var wire      1 .    clk_i  $end
$var wire      1 /    rst_n_i  $end
$var wire     32 0    instr_data_i [31:0] $end
$var reg      32 1    instr_mem_addr_o [31:0] $end
$var reg       1 2    instr_mem_addr_valid_o $end
$var wire     32 3    mem_data_i [31:0] $end
$var wire      1 4    mem_data_valid_i  $end
$var reg       1 5    mem_write_o $end
$var reg      32 6    mem_data_o [31:0] $end
$var reg      32 7    mem_addr_o [31:0] $end
$var reg       1 8    error_o $end
$var reg       1 9    halt_w $end
$var reg       1 :    error_w $end
$var reg      32 ;    programm_counter_r [31:0] $end
$var reg      32 <    next_programm_counter_w [31:0] $end
$var reg      32 =    next_program_counter_regular_w [31:0] $end
$var reg      32 >    next_program_counter_jmp_w [31:0] $end
$var reg       1 ?    next_program_counter_sel_w $end
$var reg       7 @    id_opcode [6:0] $end
$var reg       5 A    id_rs1 [4:0] $end
$var reg       5 B    id_rs2 [4:0] $end
$var reg       3 C    id_funct3 [2:0] $end
$var reg       7 D    id_funct7 [6:0] $end
$var reg       5 E    id_rd [4:0] $end
$var reg       1 F    id_rf_rw $end
$var reg      32 G    id_immediate [31:0] $end
$var reg      32 H    rf_data [31:0] $end
$var reg      32 I    rf_data_a [31:0] $end
$var reg      32 J    rf_data_b [31:0] $end
$var reg      32 K    alu_value_b [31:0] $end
$var reg       1 L    alu_zero $end
$var reg      32 M    alu_result [31:0] $end

$scope module instruction_decoder_m $end
$var wire     32 0    instruction_i [31:0] $end
$var reg       7 N    opcode_o [6:0] $end
$var reg       5 O    rs1_o [4:0] $end
$var reg       5 P    rs2_o [4:0] $end
$var reg       3 Q    funct3_o [2:0] $end
$var reg       7 R    funct7_o [6:0] $end
$var reg       5 S    rd_o [4:0] $end
$var reg       1 T    rf_rw_o $end
$var reg       1 U    err_o $end
$var reg      32 V    immediate_o [31:0] $end
$var reg      32 W    unresolved_instruction [31:0] $end
$var reg      32 X    r_type_instruction [31:0] $end
$var reg      32 Y    i_type_instruction [31:0] $end
$var reg      32 Z    s_type_instruction [31:0] $end
$var reg      32 [    u_type_instruction [31:0] $end
$var reg      32 \    i_immediate [31:0] $end
$var reg      32 ]    s_immediate [31:0] $end
$var reg      32 ^    b_immediate [31:0] $end
$var reg      21 _    u_immediate [20:0] $end
$var reg      32 `    j_immediate [31:0] $end
$upscope $end


$scope module register_file_m $end
$var wire      1 .    clk_i  $end
$var wire      1 a    halt_i  $end
$var wire      1 /    rst_n_i  $end
$var wire      1 b    write_enable_i  $end
$var wire     32 c    data_i [31:0] $end
$var wire      5 d    waddr_i [4:0] $end
$var wire      5 e    raddr_a_i [4:0] $end
$var wire      5 f    raddr_b_i [4:0] $end
$var reg      32 g    data_a_o [31:0] $end
$var reg      32 h    data_b_o [31:0] $end
$upscope $end


$scope module alu_m $end
$var wire      7 i    opcode_i [6:0] $end
$var wire     32 j    value_a_i [31:0] $end
$var wire      3 k    funct3_i [2:0] $end
$var wire      7 l    funct7_i [6:0] $end
$var wire     32 m    value_b_i [31:0] $end
$var reg       1 n    zero_o $end
$var reg      32 o    result_o [31:0] $end
$var reg      32 p    imm [31:0] $end
$upscope $end

$upscope $end


$scope module i_data_mem $end
$var wire      1 q    clk_i  $end
$var wire      1 r    rst_n_i  $end
$var wire      1 s    write_enable_i  $end
$var wire     32 t    data_i [31:0] $end
$var wire     32 u    addr_i [31:0] $end
$var reg      32 v    data_o [31:0] $end
$upscope $end


$scope module i_rom $end
$var wire      1 w    clk_i  $end
$var wire      1 x    rst_n_i  $end
$var wire     32 y    addr_i [31:0] $end
$var wire      1 z    addr_valid_i  $end
$var reg      32 {    data_o [31:0] $end
$upscope $end

$upscope $end

$enddefinitions $end
$dumpvars
1!
0"
0#
b111100000000000010010011 $
b0 %
1&
b0 '
0(
0)
b0 *
b1111 +
0,
1-
0.
0/
b111100000000000010010011 0
b0 1
12
b0 3
04
05
b0 6
b1111 7
08
19
0:
b0 ;
b100 <
b100 =
b11110 >
0?
b10011 @
b0 A
b0 B
b0 C
b0 D
b1 E
1F
b1111 G
b1111 H
b0 I
b0 J
b1111 K
0L
b1111 M
b10011 N
b0 O
b0 P
b0 Q
b0 R
b1 S
1T
0U
b1111 V
b111100000000000010010011 W
b111100000000000010010011 X
b111100000000000010010011 Y
b111100000000000010010011 Z
b111100000000000010010011 [
b1111 \
b1 ]
b100000000000 ^
b1111000000000 _
b100000001110 `
1a
1b
b1111 c
b1 d
b0 e
b0 f
b0 g
b0 h
b10011 i
b0 j
b0 k
b0 l
b1111 m
0n
b1111 o
b1111 p
0q
0r
0s
b0 t
b1111 u
b0 v
0w
0x
b0 y
1z
b111100000000000010010011 {
$end
#10000000
1"
1w
1q
1.
#20000000
0"
0w
0q
0.
#30000000
1"
1#
1x
1r
1/
1w
1q
1.
02
b100 1
b100 %
0&
0z
b100 y
#40000000
0"
0w
0q
0.
#50000000
1"
1w
1q
1.
0!
0-
09
12
0a
1&
1z
#60000000
0"
0w
0q
0.
#70000000
1"
1w
1q
1.
b11111111000000000000000100010011 {
b100 ;
b1000 =
b100010 >
b1000 <
b1000 1
b1000 %
b11111111000000000000000100010011 $
b11111111000000000000000100010011 0
b1000 y
b11111111111100000000100000001110 `
b11111111111100000000000000001110 `
b11111111111100000000011111101110 `
b11111111111100000000011111110000 `
b100000001111000000000 _
b111111110000000000000 _
b11111111111111111111100000000000 ^
b11111111111111111111000000000000 ^
b11111111111111111111011111100000 ^
b11111111111111111111011111100010 ^
b11111111111111111111100000000001 ]
b11111111111111111111111111100001 ]
b11111111111111111111111111100011 ]
b11111111111111111111111111100010 ]
b11111111111111111111100000001111 \
b11111111111111111111111111101111 \
b11111111111111111111111111110001 \
b11111111111111111111111111110000 \
b11111111000000000000000010010011 [
b11111111000000000000000100010011 [
b11111110111100000000000010010011 Z
b11111111000000000000000010010011 Z
b11111111000000000000000100010011 Z
b11111111000000000000000010010011 Y
b11111111000000000000000100010011 Y
b11111110111100000000000010010011 X
b11111111000000000000000010010011 X
b11111111000000000000000100010011 X
b11111110111100000000000010010011 W
b11111111000000000000000010010011 W
b11111111000000000000000100010011 W
b11111111111111111111111111110000 V
b10 S
b10 E
b11111111111111111111111111110000 G
b11111111111111111111111111100100 >
b11111111111111111111111111110000 K
b11111111111111111111111111110000 m
b10 d
b11111111111111111111111111110000 p
b11111111111111111111111111110000 o
b11111111111111111111111111110000 M
b11111111111111111111111111110000 H
b11111111111111111111111111110000 7
b11111111111111111111111111110000 c
b11111111111111111111111111110000 +
b11111111111111111111111111110000 u
#80000000
0"
0w
0q
0.
#90000000
1"
1w
1q
1.
b1000001000000110110011 {
bx v
b1000 ;
b1100 =
b11111111111111111111111111101000 >
b1100 <
b1100 1
b1100 %
bx '
b1000001000000110110011 $
b1000001000000110110011 0
bx 3
b1100 y
b11111110000 `
b1000011111110000 `
b1000000000010000 `
b1000000000000010 `
b11111110000000000000 _
b10000000000 _
b10000010000 _
b11111100010 ^
b111111100010 ^
b100000000010 ^
b11111100010 ]
b10 ]
b11 ]
b11111110000 \
b10000 \
b10 \
b1000001000000100010011 [
b1000001000000110010011 [
b1000001000000110110011 [
b1000000000000000100010011 Z
b1000000000000100010011 Z
b1000001000000100010011 Z
b1000001000000110010011 Z
b1000001000000110110011 Z
b1000000000000100010011 Y
b1000001000000100010011 Y
b1000001000000110010011 Y
b1000001000000110110011 Y
b1000000000000000100010011 X
b1000000000000100010011 X
b1000001000000100010011 X
b1000001000000110010011 X
b1000001000000110110011 X
b1000000000000000100010011 W
b1000001000000100010011 W
b1000001000000110010011 W
b1000001000000110110011 W
b0 V
b1 O
b10 P
b11 S
b110011 N
b110011 @
b11 E
b10 B
b1 A
b0 G
b0 K
b1000 >
b0 m
b1 e
b10 f
b11 d
b110011 i
b0 p
b1111 g
b11111111111111111111111111110000 h
b0 o
1n
1L
b0 M
b11111111111111111111111111110000 J
b1111 I
b0 H
b0 7
b11111111111111111111111111110000 K
b11111111111111111111111111110000 6
b11111111111111111111111111110000 m
b0 c
b1111 j
b11111111111111111111111111111111 p
b11111111111111111111111111110000 *
b0 +
b11111111111111111111111111111111 o
0n
b0 u
b11111111111111111111111111110000 t
0L
b11111111111111111111111111111111 M
b11111111111111111111111111111111 H
b11111111111111111111111111111111 7
b11111111111111111111111111111111 c
b11111111111111111111111111111111 +
b11111111111111111111111111111111 u
#100000000
0"
0w
0q
0.
#110000000
1"
1w
1q
1.
b100000000000001000010011 {
b1100 ;
b10000 =
b1100 >
b10000 <
b10000 1
b10000 %
b100000000000001000010011 $
b100000000000001000010011 0
b10000 y
b10 `
b1000 `
b1000000010000 _
b1000000000000 _
b10 ^
b100 ^
b101 ]
b100 ]
b1000 \
b100000000000000110110011 [
b100000000000001000110011 [
b100000000000001000010011 [
b100000001000000110110011 Z
b100000000000000110110011 Z
b100000000000001000110011 Z
b100000000000001000010011 Z
b100000001000000110110011 Y
b100000000000000110110011 Y
b100000000000001000110011 Y
b100000000000001000010011 Y
b100000001000000110110011 X
b100000000000000110110011 X
b100000000000001000110011 X
b100000000000001000010011 X
b100000000000000110110011 W
b100000000000001000110011 W
b100000000000001000010011 W
b1000 V
b0 O
b0 P
b100 S
b10011 N
b10011 @
b100 E
b0 B
b0 A
b1000 G
b1000 K
b11100 >
b1000 m
b0 e
b0 f
b100 d
b10011 i
b10111 p
b0 g
b0 h
b10111 o
b10111 M
b0 J
b0 I
b10111 H
b10111 7
b0 6
b10111 c
b0 j
b1000 p
b0 *
b10111 +
b1000 o
b10111 u
b0 t
b1000 M
b1000 H
b1000 7
b1000 c
b1000 +
b1000 u
#120000000
0"
0w
0q
0.
#130000000
1"
1w
1q
1.
b10000000000000001010010011 {
b0 v
b10000 ;
b10100 =
b100000 >
b10100 <
b10100 1
b10100 %
b0 '
b10000000000000001010010011 $
b10000000000000001010010011 0
b0 3
b10100 y
b101000 `
b100000 `
b100000000000000 _
b100000000100 ^
b100000100100 ^
b100100 ]
b100101 ]
b101000 \
b100000 \
b10000000000000001000010011 [
b10000000000000001010010011 [
b10100000000000001000010011 Z
b10000000000000001000010011 Z
b10000000000000001010010011 Z
b10000000000000001000010011 Y
b10000000000000001010010011 Y
b10100000000000001000010011 X
b10000000000000001000010011 X
b10000000000000001010010011 X
b10100000000000001000010011 W
b10000000000000001000010011 W
b10000000000000001010010011 W
b100000 V
b101 S
b101 E
b100000 G
b1010000 >
b100000 K
b100000 m
b101 d
b100000 p
b100000 o
b100000 M
b100000 H
b100000 7
b100000 c
b100000 +
b100000 u
#140000000
0"
0w
0q
0.
#150000000
1"
1w
1q
1.
b10010100100000001100110011 {
b10100 ;
b11000 =
b1010100 >
b11000 <
b11000 1
b11000 %
b10010100100000001100110011 $
b10010100100000001100110011 0
b11000 y
b100000000000100000 `
b100000100000100000 `
b100000100000100100 `
b100101000000000 _
b100101001000000 _
b100100 ^
b100110 ^
b100111 ]
b100110 ]
b100100 \
b100101 \
b10010100100000001010010011 [
b10010100100000001100010011 [
b10010100100000001100110011 [
b10010100000000001010010011 Z
b10010100100000001010010011 Z
b10010100100000001100010011 Z
b10010100100000001100110011 Z
b10010100000000001010010011 Y
b10010100100000001010010011 Y
b10010100100000001100010011 Y
b10010100100000001100110011 Y
b10010100000000001010010011 X
b10010100100000001010010011 X
b10010100100000001100010011 X
b10010100100000001100110011 X
b10010100100000001010010011 W
b10010100100000001100010011 W
b10010100100000001100110011 W
b0 V
b100 O
b101 P
b1 R
b110 S
b110011 N
b110011 @
b110 E
b1 D
b101 B
b100 A
b0 G
b0 K
b10100 >
b0 m
b100 e
b101 f
b1 l
b110 d
b110011 i
b0 p
b1000 g
b100000 h
b0 o
1n
1L
b0 M
b100000 J
b1000 I
b0 H
b0 7
b100000 K
b100000 6
b100000 m
b0 c
b1000 j
b100000000 p
b100000 *
b0 +
b100000000 o
0n
b0 u
b100000 t
0L
b100000000 M
b100000000 H
b100000000 7
b100000000 c
b100000000 +
b100000000 u
#160000000
0"
0w
0q
0.
#170000000
1"
1w
1q
1.
b11110000100000000000001110010011 {
b11000 ;
b11100 =
b11000 >
b11100 <
b11100 1
b11100 %
b11110000100000000000001110010011 $
b11110000100000000000001110010011 0
b11100 y
b11111111111100100000100000100100 `
b11111111111100000000100000100100 `
b11111111111100000000000000100100 `
b11111111111100000000011100000100 `
b11111111111100000000011100001000 `
b100000100101001000000 _
b111100001000001000000 _
b111100001000000000000 _
b11111111111111111111000000100110 ^
b11111111111111111111100000100110 ^
b11111111111111111111111100000110 ^
b11111111111111111111100000100110 ]
b11111111111111111111111100000110 ]
b11111111111111111111111100000111 ]
b11111111111111111111100000100101 \
b11111111111111111111111100000101 \
b11111111111111111111111100001001 \
b11111111111111111111111100001000 \
b11110000100000000000001100110011 [
b11110000100000000000001110110011 [
b11110000100000000000001110010011 [
b11110000010100100000001100110011 Z
b11110000100000100000001100110011 Z
b11110000100000000000001100110011 Z
b11110000100000000000001110110011 Z
b11110000100000000000001110010011 Z
b11110000100000100000001100110011 Y
b11110000100000000000001100110011 Y
b11110000100000000000001110110011 Y
b11110000100000000000001110010011 Y
b11110000010100100000001100110011 X
b11110000100000100000001100110011 X
b11110000100000000000001100110011 X
b11110000100000000000001110110011 X
b11110000100000000000001110010011 X
b11110000010100100000001100110011 W
b11110000100000000000001100110011 W
b11110000100000000000001110110011 W
b11110000100000000000001110010011 W
b11111111111111111111111100001000 V
b0 O
b0 P
b0 R
b111 S
b10011 N
b10011 @
b111 E
b0 D
b0 B
b0 A
b11111111111111111111111100001000 G
b11111111111111111111111100001000 K
b11111111111111111111111000101000 >
b11111111111111111111111100001000 m
b0 e
b0 f
b0 l
b111 d
b10011 i
b11111111111111111111111100010000 p
b0 g
b0 h
b11111111111111111111111100010000 o
b11111111111111111111111100010000 M
b0 J
b0 I
b11111111111111111111111100010000 H
b11111111111111111111111100010000 7
b0 6
b11111111111111111111111100010000 c
b0 j
b11111111111111111111111100001000 p
b0 *
b11111111111111111111111100010000 +
b11111111111111111111111100001000 o
b11111111111111111111111100010000 u
b0 t
b11111111111111111111111100001000 M
b11111111111111111111111100001000 H
b11111111111111111111111100001000 7
b11111111111111111111111100001000 c
b11111111111111111111111100001000 +
b11111111111111111111111100001000 u
#180000000
0"
0w
0q
0.
#190000000
1"
1w
1q
1.
b11101010100100000000010000010011 {
bx v
b11100 ;
b100000 =
b11111111111111111111111000101100 >
b100000 <
b100000 1
b100000 %
bx '
b11101010100100000000010000010011 $
b11101010100100000000010000010011 0
bx 3
b100000 y
b11111111111100000000111100001000 `
b11111111111100000000111010101000 `
b111010101001000000000 _
b11111111111111111111011100000110 ^
b11111111111111111111011010100110 ^
b11111111111111111111011010101000 ^
b11111111111111111111111010100111 ]
b11111111111111111111111010101001 ]
b11111111111111111111111010101000 ]
b11111111111111111111111010101000 \
b11111111111111111111111010101001 \
b11101010100100000000001110010011 [
b11101010100100000000010000010011 [
b11101010100000000000001110010011 Z
b11101010100100000000001110010011 Z
b11101010100100000000010000010011 Z
b11101010100100000000001110010011 Y
b11101010100100000000010000010011 Y
b11101010100000000000001110010011 X
b11101010100100000000001110010011 X
b11101010100100000000010000010011 X
b11101010100000000000001110010011 W
b11101010100100000000001110010011 W
b11101010100100000000010000010011 W
b11111111111111111111111010101001 V
b1000 S
b1000 E
b11111111111111111111111010101001 G
b11111111111111111111110101101110 >
b11111111111111111111111010101001 K
b11111111111111111111111010101001 m
b1000 d
b11111111111111111111111010101001 p
b11111111111111111111111010101001 o
b11111111111111111111111010101001 M
b11111111111111111111111010101001 H
b11111111111111111111111010101001 7
b11111111111111111111111010101001 c
b11111111111111111111111010101001 +
b11111111111111111111111010101001 u
#200000000
0"
0w
0q
0.
#210000000
1"
1w
1q
1.
b100000111100010010110011 {
b100000 ;
b100100 =
b11111111111111111111110101110010 >
b100100 <
b100100 1
b100100 %
b100000111100010010110011 $
b100000111100010010110011 0
b100100 y
b111010101000 `
b111100111010101000 `
b111100011010101000 `
b111100000000001000 `
b11010101001000000000 _
b1000000000000 _
b1000001111000 _
b11010101000 ^
b111010101000 ^
b100000001000 ^
b11010101000 ]
b1000 ]
b1001 ]
b11010101001 \
b1001 \
b1000 \
b100000111100010000010011 [
b100000111100010010010011 [
b100000111100010010110011 [
b100100000000010000010011 Z
b100000000000010000010011 Z
b100000111000010000010011 Z
b100000111100010000010011 Z
b100000111100010010010011 Z
b100000111100010010110011 Z
b100000000000010000010011 Y
b100000111000010000010011 Y
b100000111100010000010011 Y
b100000111100010010010011 Y
b100000111100010010110011 Y
b100100000000010000010011 X
b100000000000010000010011 X
b100000111000010000010011 X
b100000111100010000010011 X
b100000111100010010010011 X
b100000111100010010110011 X
b100100000000010000010011 W
b100000111000010000010011 W
b100000111100010000010011 W
b100000111100010010010011 W
b100000111100010010110011 W
b0 V
b111 O
b1000 P
b100 Q
b1001 S
b110011 N
b110011 @
b1001 E
b100 C
b1000 B
b111 A
b0 G
b0 K
b100000 >
b0 m
b111 e
b1000 f
b100 k
b1001 d
b110011 i
b0 p
b11111111111111111111111100001000 g
b11111111111111111111111010101001 h
b0 o
1n
1L
b0 M
b11111111111111111111111010101001 J
b11111111111111111111111100001000 I
b0 H
b0 7
b11111111111111111111111010101001 K
b11111111111111111111111010101001 6
b11111111111111111111111010101001 m
b0 c
b11111111111111111111111100001000 j
b11111111111111111111110110110001 p
b11111111111111111111111010101001 *
b0 +
b11111111111111111111110110110001 o
0n
b0 u
b11111111111111111111111010101001 t
0L
b11111111111111111111110110110001 M
b11111111111111111111110110110001 H
b11111111111111111111110110110001 7
b11111111111111111111110110110001 c
b11111111111111111111110110110001 +
b11111111111111111111110110110001 u
#220000000
0"
0w
0q
0.
#230000000
1"
1w
1q
1.
b1100000010000000100011 {
b100100 ;
b101000 =
b100100 >
b101000 <
b101000 1
b101000 %
b1100000010000000100011 $
b1100000010000000100011 0
b101000 y
b10000000001000 `
b10100000001000 `
b10100000000010 `
b11001111000 _
b11000000100 _
b1000 ^
b0 ^
b1 ]
b0 ]
b10 \
b11 \
b1100000010010010110011 [
b1100000010000000110011 [
b1100000010000000100011 [
b1100111100010010110011 Z
b1100000100010010110011 Z
b1100000010010010110011 Z
b1100000010000000110011 Z
b1100000010000000100011 Z
b1100111100010010110011 Y
b1100000100010010110011 Y
b1100000010010010110011 Y
b1100000010000000110011 Y
b1100000010000000100011 Y
b1100111100010010110011 X
b1100000100010010110011 X
b1100000010010010110011 X
b1100000010000000110011 X
b1100000010000000100011 X
b1100000100010010110011 W
b1100000010010010110011 W
b1100000010000000110011 W
b1100000010000000100011 W
b0 O
b11 P
b10 Q
b0 S
0T
b100011 N
b100011 @
0F
b0 E
b10 C
b11 B
b0 A
15
b0 e
b11 f
b10 k
b0 d
0b
b100011 i
b0 g
b11111111111111111111111111111111 h
b0 p
1)
b0 o
1n
1s
1L
b0 M
b11111111111111111111111111111111 J
b0 I
b0 H
b0 7
b11111111111111111111111111111111 K
b11111111111111111111111111111111 6
b11111111111111111111111111111111 m
b0 c
b0 j
b11111111111111111111111111111111 *
b0 +
b0 u
b11111111111111111111111111111111 t
#240000000
0"
0w
0q
0.
#250000000
1"
1w
1q
1.
b11000000010001000100011 {
b0 v
b101000 ;
b101100 =
b101000 >
b101100 <
b101100 1
b101100 %
b0 '
b11000000010001000100011 $
b11000000010001000100011 0
b0 3
b101100 y
b10000000000010 `
b10000000000110 `
b110000000100 _
b100 ^
b100 ]
b111 \
b110 \
b11000000010000000100011 [
b11000000010001000100011 [
b11000000010000000100011 Z
b11000000010001000100011 Z
b11000000010000000100011 Y
b11000000010001000100011 Y
b11000000010000000100011 X
b11000000010001000100011 X
b11000000010000000100011 W
b11000000010001000100011 W
b100 V
b110 P
b110 B
b100 G
b110000 >
b110 f
b100000000 h
b100000000 J
b100000000 K
b100000000 6
b100000000 m
b100000000 *
b100000000 t
#260000000
0"
0w
0q
0.
#270000000
1"
1w
1q
1.
b10010100000011 {
b11111111111111111111111111111111 v
b101100 ;
b110000 =
b110100 >
b110000 <
b110000 1
b110000 %
b11111111111111111111111111111111 '
b10010100000011 $
b10010100000011 0
b11111111111111111111111111111111 3
b110000 y
b10000000000000 `
b100 _
b1010 ^
b1010 ]
b0 \
b10001000100011 [
b10010100100011 [
b10010100000011 [
b10001000100011 Z
b10010100100011 Z
b10010100000011 Z
b10001000100011 Y
b10010100100011 Y
b10010100000011 Y
b10001000100011 X
b10010100100011 X
b10010100000011 X
b10001000100011 W
b10010100100011 W
b10010100000011 W
b0 V
b0 P
b1010 S
1T
b11 N
b11 @
1F
b1010 E
b0 B
b0 G
19
b11111111111111111111111111111111 H
05
b101100 >
02
b11111111111111111111111111111111 c
1a
b0 f
b1010 d
1b
b11 i
0&
b0 h
0)
0s
0z
b0 J
b0 K
b0 6
b0 m
b0 *
b0 t
#280000000
0"
0w
0q
0.
#290000000
1"
1w
1q
1.
1(
b100000000 v
14
09
b100000000 '
12
b100000000 3
0a
b100000000 H
1&
1z
b100000000 c
#300000000
0"
0w
0q
0.
#310000000
1"
1w
1q
1.
b10000000010010110000011 {
b110000 ;
b110100 =
b110000 >
b110100 <
b110100 1
b110100 %
b10000000010010110000011 $
b10000000010010110000011 0
b110100 y
b10000000000100 `
b100000000100 _
b100000001010 ^
b1011 ]
b100 \
b10000000010010100000011 [
b10000000010010110000011 [
b10000000010010100000011 Z
b10000000010010110000011 Z
b10000000010010100000011 Y
b10000000010010110000011 Y
b10000000010010100000011 X
b10000000010010110000011 X
b10000000010010100000011 W
b10000000010010110000011 W
b100 V
b1011 S
b1011 E
b100 G
b111000 >
b1011 d
#320000000
0"
0w
0q
0.
#330000000
1"
1w
1q
1.
b0 {
b110100 ;
b111000 =
b111100 >
b111000 <
b111000 1
b111000 %
b0 $
b0 0
b111000 y
b100 `
b0 `
b100 _
b0 _
b1010 ^
b0 ^
b1 ]
b0 ]
b0 \
b10110000011 [
b11 [
b0 [
b10010110000011 Z
b10110000011 Z
b11 Z
b0 Z
b10010110000011 Y
b10110000011 Y
b11 Y
b0 Y
b10010110000011 X
b10110000011 X
b11 X
b0 X
b10010110000011 W
b10110000011 W
b11 W
b0 W
b0 V
b0 Q
b0 S
0T
1U
b0 N
b0 @
1:
0F
b0 E
b0 C
b0 G
b0 H
18
b110100 >
b0 c
b0 k
b0 d
0b
b0 i
1,
